Decoder_2_4/simulation/qsim/dec_2_4.msim.vcd
$comment
	File created using the following command:
		vcd file dec_2_4.msim.vcd -direction
$end
$date
	Mon Oct 28 00:22:29 2019
$end
$version
	ModelSim Version 10.1d
$end
$timescale
	1ps
$end
$scope module dec_2_4_vlg_vec_tst $end
$var reg 1 ! en $end
$var reg 1 " x0 $end
$var reg 1 # x1 $end
$var wire 1 $ y0 $end
$var wire 1 % y1 $end
$var wire 1 & y2 $end
$var wire 1 ' y3 $end
$var wire 1 ( sampler $end
$scope module i1 $end
$var wire 1 ) gnd $end
$var wire 1 * vcc $end
$var wire 1 + unknown $end
$var tri1 1 , devclrn $end
$var tri1 1 - devpor $end
$var tri1 1 . devoe $end
$var wire 1 / x0~combout $end
$var wire 1 0 en~combout $end
$var wire 1 1 x1~combout $end
$var wire 1 2 y0~0_combout $end
$var wire 1 3 y1~0_combout $end
$var wire 1 4 y2~0_combout $end
$var wire 1 5 y3~0_combout $end
$upscope $end
$upscope $end
$enddefinitions $end
#0
$dumpvars
1!
0"
0#
1$
1%
1&
1'
x(
0)
1*
x+
1,
1-
1.
0/
10
01
12
13
14
15
$end
#10000
1"
1/
0(
#20000
1#
0"
11
0/
1(
#30000
1"
1/
0(
#40000
0!
0#
0"
00
01
0/
1(
02
0$
#50000
1"
1/
0(
03
12
0%
1$
#60000
1#
0"
11
0/
1(
04
13
0&
1%
#70000
1"
1/
0(
05
14
0'
1&
#80000
0#
0"
01
0/
1(
15
02
1'
0$
