MUX_4_1/simulation/qsim/mux_4_1.msim.vcd
$comment
	File created using the following command:
		vcd file mux_4_1.msim.vcd -direction
$end
$date
	Mon Oct 28 00:16:00 2019
$end
$version
	ModelSim Version 10.1d
$end
$timescale
	1ps
$end
$scope module mux_4_1_vlg_vec_tst $end
$var reg 1 ! D0 $end
$var reg 1 " D1 $end
$var reg 1 # D2 $end
$var reg 1 $ D3 $end
$var reg 2 % sel [1:0] $end
$var wire 1 & Y $end
$var wire 1 ' sampler $end
$scope module i1 $end
$var wire 1 ( gnd $end
$var wire 1 ) vcc $end
$var wire 1 * unknown $end
$var tri1 1 + devclrn $end
$var tri1 1 , devpor $end
$var tri1 1 - devoe $end
$var wire 1 . D2~combout $end
$var wire 1 / D3~combout $end
$var wire 1 0 D0~combout $end
$var wire 1 1 D1~combout $end
$var wire 1 2 Mux0~0_combout $end
$var wire 1 3 Mux0~1_combout $end
$var wire 1 4 sel~combout [1] $end
$var wire 1 5 sel~combout [0] $end
$upscope $end
$upscope $end
$enddefinitions $end
#0
$dumpvars
0!
0"
0#
0$
b0 %
0&
x'
0(
1)
x*
1+
1,
1-
0.
0/
00
01
02
03
05
04
$end
#1000
1!
10
0'
12
13
1&
#3000
1"
0!
11
00
1'
02
03
0&
#5000
1#
0"
1.
01
0'
#7000
1$
0#
1/
0.
1'
#9000
b1 %
1!
0$
15
10
0/
0'
#11000
1"
0!
11
00
1'
12
13
1&
#13000
1#
0"
1.
01
0'
02
03
0&
#15000
1$
0#
1/
0.
1'
#17000
b11 %
b10 %
1!
0$
05
14
10
0/
0'
#19000
1"
0!
11
00
1'
#21000
1#
0"
1.
01
0'
13
1&
#23000
1$
0#
1/
0.
1'
03
0&
#25000
b11 %
1!
0$
15
10
0/
0'
12
#27000
1"
0!
11
00
1'
#29000
1#
0"
1.
01
0'
#31000
1$
0#
1/
0.
1'
13
1&
#33000
b1 %
b0 %
0$
05
04
0/
0'
02
03
0&
